651926041
426924755
64623885403839768
17781434636824162842643
232293007
618083635804153303356125
3868764542783652
704735537857952286885882285147406096
-67032429
1158381099
1436022400607822200505360500158241
114635739241
638955132
29363674172211700
24721127710532880
550529097
972294760
178312160516971
28793755449565434
218978805699634369
107438836
664231946
-76315583
38979212232828560
11634181604683506
-77113784
366405523
279751148
345490672
84749047101641818054721098974560256
261388450
463512715
716627026
116368881
-6615830
12761039487082441
54721989
366365612
360207562
-533363904
252041193
-647327232
-612308904
147058111
21022467708034590
42483662909508069
392483576
-35692479
58075790134535954
177762381
-162344009
140961559622952640
5602627175244031018665496
308649105845307169599402483999361
155446295
55691962563345350
1
116290187
252389914
512250847
1
855582700
139332712625069916
393258903
12117482
87138730467105258
23918396394149156
244930355
175131257
423822398
99814792766641260
24322864970512712
9437439165001476
285832188
266100001
-11038627
8292863188506757013849753
-746275542
144570096
378377133
18079209503931236
56320868309872761
595365595
32687833
69085127967990430973855599
244112275607222416
30977119107676074942555937557121
433309296
-366171025
40447464023508136
34439858571711115412704989
51153007311291830
2420427362269921
-74847305
320862936
713788332
19901768733847968
883408765
500309389
4226315345917085835205091
96025377335581452
1684067677465881345044616
502132393
8229283524130095
722212882
438764680
60071292573246089
695843844
65117497079310822
10163742245278416
5181204301627916348810191
135999476
103520121
-174584304
142960930273833928
253404908929929933
159005609
-28390264
29826830313336375
49222346
-105666198
552111193
98512545
511805557466086
50142181444357700742408
757947340854631261368000
5915597792109621
339766199
26886068348847517383057856
18566877795627000
2444460738680020787000000
256316506600656073
199813955
1457510580
-63908862
142657379137213924
317027547
239119182
98651843
-510236297
49929305177314158608384
172511500596290180
141973893
1
114384104964374322
528964835
556496291
1890226433272862902882421637136
5997463901130240
118417619383411518
531984023
441846767
72861395593453203793691907
197197416
150247721484783504
32901873
4573348275088800
1
95284294
6375956887526699
88768846035702121
254543110
42952776736749197301901881616
118602920
190793645
213341627
1
160819890
986541189
26731283
3725455341935040
-34326255
541528434
47764508
200666857
42727232686345290
65409830091361104
69430685894493696
29956162876262910747487
-29488658
-30491241
755481589388669046731973625703601
3343083192570262057496
8698258009287653871552001039933696
2746059390404567
159835373
5500570549620972
83868780136263840
55415131916942482
899521776928368
851332055
214790317
17104209067749577940962587
1
42823034
84443485514214672779265073
236745396
668864873
638462328599199527648059592063704336
165724357299436711796468535244960000
162586788
44096860034333144
28364238785410126882041123
593590275
483903194
10916587725846083547546519
183987290
1423038804
2090998185433852
-77356728
515438340
666154212
82577218375140047
38021480033669685
24256742561556290
577207089674151568082867957982736
-160827583
8084993145471398141699148944608801
25901492048482050
668249891
394824844
27248195804334587607852980928076816
660868445
-177832211
137742355268179872
461527508974848
-223890153
216345268
396104809
75277523706883940
68540131
